{
  "type": "service_account",
  "project_id": "babymonitor-63deb",
  "private_key_id": "d1a7fcdebc1b23f1089e811c5205df7487bcbdcd",
  "private_key": "-----BEGIN PRIVATE KEY-----\nMIIEvAIBADANBgkqhkiG9w0BAQEFAASCBKYwggSiAgEAAoIBAQC+iZelPVXi+Zc0\nm390ww+qgCkKVNTP6ZGQ/4G/4JGi7Dz1L8x9PwnSO4SdoDx2IUmxetq24/7kY0qO\n2KQHYfJgD+YsfOf6fvC6nVG2juE3GaPqgcy/ykzA57LJXZV4InEMtdavf+LuQqKr\nePcOQrit+DZS5ae3GtBiAg8rDzFYXJp9OzxA7zdcFqe9Pejj3reXb1ETOqLPZ5L3\nJbZoEzLEHU3sTSZ73Fgq8KvhSi6cXEqOxFWUNH1T+IJvjnbLI2hUoa+9cgi4vnAp\nBo1beLwBXbDrXauSpyu/yUbcuciKUBVFNgMGVLy3DlvZ6gfBhk3LkH85dSoXWArc\n5r9r3gkLAgMBAAECggEAPyWqtIDXbhn6Gt1OKIxdLMy8zUfAIAfwznVfsw/iNHTG\n3xuwUfIKdzpygSsR3rS5j7B/vA1j9J1ToHP8KNY1VdDvH99loodfkPmCk1ZXHcPJ\np3bNPOL2/RfNER+K4f3IKcY6GH/x3bUH5Hx6pKdIPZ/9oQurweuJFHJKRKMMX5P9\nxPel2/0EeNY7sucW0Pjp9ykNZoEocfcHkA8eJljFgx4xCPJm21GWt4ZpaNXT2tbz\nBxoSjuk86jhWYNvyz+XyR/BTpo2HSP/cu3toi0yrWeaIripSAwfhB0VbBua3uuio\nKpdKFVYqLkAe6d9EGzsYRVPKgx691CkyPNuO42lPQQKBgQD5cJ9kaTJDrA/binQF\nzdCDMbgeewb/9AP0dB2eFQLlzzk8IWv71d3Q9GkN07AZ29yO99H529/uPD2qguhf\n82ajNIeeE/0OsXR+c3nNEvlB2cyyVUUKUYM9GHkJkhOvm0GVzMv9kwHSVAfTW5rY\nf8YjVNJ7f83+QICLHX7ng9BATwKBgQDDjGdKLMEwh9Ojc4ieEH7ZB0t2rYdI3djO\nC5ScFC8uvNahmK0ey2wqInrIZg5JW8NdUlZJgqJNzXYBBWt9w1yRSlA+dp7F5yVK\nrjGGNxZDq9WbnqQtr1gfIQ/n6HiqT7NIRZkEc/si6MwbL8lQs2F02ryyRUh97rV6\nlakkk8FghQKBgCwjpsDw8IkTEHdL574DLouYp7kVEicGuhBu37LSiwG5iqo+S8pz\njN3l8hUVSYs54ayW49wv8U9J76uVoKMiAh6NNBZf+R65fiDGNF56pgrmDJfeCOqL\nhAqyovBznfIsKg3lAI/tjJv4bK4U/rCi45/q6ZgbBIuiRFzZqlQzeg13AoGABTi8\nkVh8mCUoW5b8MOxT1svBEhw0Hpf98BKTF0/aqq7UNGB1TvszmjRtfuhqvT68CsPm\nFfRtDRLNcd2JL0SGNkL7vY9BUhuH/WSFYgYajBgMjilATQ//lGU3nYOxpSqXqPhi\ny6GlNRtuR9OQ1pzTn2Ev5LrA4sv7AJj6eUWQxlkCgYBYrDYjGLyyk4tsIdNGgPS5\nfo1M1MmoiAzpBnLvubNrlliWuFkeOfjs/SYnubYxnOXZWZpNd0Dltkb8sE2snLXk\nT+2w6IX8f9pwMcCvinGn6KpK5y1L3vF3DhThHJmzyYIRHopslVuErHze0BbGK1dI\nIwwnDxacB3wQ/5IDZa5FaA==\n-----END PRIVATE KEY-----\n",
  "client_email": "firebase-crashreporting-id1gf@babymonitor-63deb.iam.gserviceaccount.com",
  "client_id": "111941956842788276709",
  "auth_uri": "https://accounts.google.com/o/oauth2/auth",
  "token_uri": "https://accounts.google.com/o/oauth2/token",
  "auth_provider_x509_cert_url": "https://www.googleapis.com/oauth2/v1/certs",
  "client_x509_cert_url": "https://www.googleapis.com/robot/v1/metadata/x509/firebase-crashreporting-id1gf%40babymonitor-63deb.iam.gserviceaccount.com"
}
